{
  'service_name': 'AGSound.io',
  'api_version': '0.1',
  'items': [
    {
      'id': 1,
      'title': 'Example sound',
      'views': '1021',
      'length': '17',
      'created': '01-01-2015 8:01 AM UTC+2:00'
    }
  ]
}